{
  "project_info": {
    "project_number": "850119352992",
    "firebase_url": "https://bodyfriendshippingsystem.firebaseio.com",
    "project_id": "bodyfriendshippingsystem",
    "storage_bucket": "bodyfriendshippingsystem.appspot.com"
  },
  "client": [
    {
      "client_info": {
        "mobilesdk_app_id": "1:850119352992:android:7428dd6530e9ff9e",
        "android_client_info": {
          "package_name": "com.bodyfriend.service"
        }
      },
      "oauth_client": [
        {
          "client_id": "850119352992-ojvufsjf5j39ns1rgo9627ah0jig6mdg.apps.googleusercontent.com",
          "client_type": 1,
          "android_info": {
            "package_name": "com.bodyfriend.service",
            "certificate_hash": "83860b4445d30d60926bd14dac1ebcb90fd6d791"
          }
        },
        {
          "client_id": "850119352992-ak5ce5m52pdrmj4geb0kt027t1sh7vmq.apps.googleusercontent.com",
          "client_type": 3
        }
      ],
      "api_key": [
        {
          "current_key": "AIzaSyDCxWoHSLsU78_qgLMF-RFdGHohwAzUVG8"
        }
      ],
      "services": {
        "analytics_service": {
          "status": 1
        },
        "appinvite_service": {
          "status": 2,
          "other_platform_oauth_client": [
            {
              "client_id": "850119352992-ak5ce5m52pdrmj4geb0kt027t1sh7vmq.apps.googleusercontent.com",
              "client_type": 3
            }
          ]
        },
        "ads_service": {
          "status": 2
        }
      }
    },
    {
      "client_info": {
        "mobilesdk_app_id": "1:850119352992:android:0929de354de66f81",
        "android_client_info": {
          "package_name": "com.bodyfriend.service.debug"
        }
      },
      "oauth_client": [
        {
          "client_id": "850119352992-r48c1lq5v72ove7a1672ajcstumg2dik.apps.googleusercontent.com",
          "client_type": 1,
          "android_info": {
            "package_name": "com.bodyfriend.service.debug",
            "certificate_hash": "83860b4445d30d60926bd14dac1ebcb90fd6d791"
          }
        },
        {
          "client_id": "850119352992-ak5ce5m52pdrmj4geb0kt027t1sh7vmq.apps.googleusercontent.com",
          "client_type": 3
        }
      ],
      "api_key": [
        {
          "current_key": "AIzaSyDCxWoHSLsU78_qgLMF-RFdGHohwAzUVG8"
        }
      ],
      "services": {
        "analytics_service": {
          "status": 1
        },
        "appinvite_service": {
          "status": 2,
          "other_platform_oauth_client": [
            {
              "client_id": "850119352992-ak5ce5m52pdrmj4geb0kt027t1sh7vmq.apps.googleusercontent.com",
              "client_type": 3
            }
          ]
        },
        "ads_service": {
          "status": 2
        }
      }
    },
    {
      "client_info": {
        "mobilesdk_app_id": "1:850119352992:android:96eefc865991d4a0",
        "android_client_info": {
          "package_name": "com.bodyfriend.shippingsystem"
        }
      },
      "oauth_client": [
        {
          "client_id": "850119352992-k2eo4a94j5ti0kgesp8rb6cjoq8nuth0.apps.googleusercontent.com",
          "client_type": 1,
          "android_info": {
            "package_name": "com.bodyfriend.shippingsystem",
            "certificate_hash": "158c22524eff3e15fe89ecadfebc202880ce6e13"
          }
        },
        {
          "client_id": "850119352992-ak5ce5m52pdrmj4geb0kt027t1sh7vmq.apps.googleusercontent.com",
          "client_type": 3
        }
      ],
      "api_key": [
        {
          "current_key": "AIzaSyDCxWoHSLsU78_qgLMF-RFdGHohwAzUVG8"
        }
      ],
      "services": {
        "analytics_service": {
          "status": 1
        },
        "appinvite_service": {
          "status": 2,
          "other_platform_oauth_client": [
            {
              "client_id": "850119352992-ak5ce5m52pdrmj4geb0kt027t1sh7vmq.apps.googleusercontent.com",
              "client_type": 3
            }
          ]
        },
        "ads_service": {
          "status": 2
        }
      }
    },
    {
      "client_info": {
        "mobilesdk_app_id": "1:850119352992:android:ef78936c0f9f6653",
        "android_client_info": {
          "package_name": "com.bodyfriend.shippingsystem.debug"
        }
      },
      "oauth_client": [
        {
          "client_id": "850119352992-til8cvgk697papq2aq8u3b727g78s8qn.apps.googleusercontent.com",
          "client_type": 1,
          "android_info": {
            "package_name": "com.bodyfriend.shippingsystem.debug",
            "certificate_hash": "158c22524eff3e15fe89ecadfebc202880ce6e13"
          }
        },
        {
          "client_id": "850119352992-hcps70jv4a65070kjk4ttc3e6gco5gi2.apps.googleusercontent.com",
          "client_type": 1,
          "android_info": {
            "package_name": "com.bodyfriend.shippingsystem.debug",
            "certificate_hash": "794f9d765e100a61ef8f591f9bd675484f9db777"
          }
        },
        {
          "client_id": "850119352992-ak5ce5m52pdrmj4geb0kt027t1sh7vmq.apps.googleusercontent.com",
          "client_type": 3
        }
      ],
      "api_key": [
        {
          "current_key": "AIzaSyDCxWoHSLsU78_qgLMF-RFdGHohwAzUVG8"
        }
      ],
      "services": {
        "analytics_service": {
          "status": 1
        },
        "appinvite_service": {
          "status": 2,
          "other_platform_oauth_client": [
            {
              "client_id": "850119352992-ak5ce5m52pdrmj4geb0kt027t1sh7vmq.apps.googleusercontent.com",
              "client_type": 3
            }
          ]
        },
        "ads_service": {
          "status": 2
        }
      }
    },
    {
      "client_info": {
        "mobilesdk_app_id": "1:850119352992:android:34138b6b13e5c547",
        "android_client_info": {
          "package_name": "com.bodyfriend.shippingsystem.out"
        }
      },
      "oauth_client": [
        {
          "client_id": "850119352992-ak5ce5m52pdrmj4geb0kt027t1sh7vmq.apps.googleusercontent.com",
          "client_type": 3
        }
      ],
      "api_key": [
        {
          "current_key": "AIzaSyDCxWoHSLsU78_qgLMF-RFdGHohwAzUVG8"
        }
      ],
      "services": {
        "analytics_service": {
          "status": 1
        },
        "appinvite_service": {
          "status": 1,
          "other_platform_oauth_client": []
        },
        "ads_service": {
          "status": 2
        }
      }
    },
    {
      "client_info": {
        "mobilesdk_app_id": "1:850119352992:android:eb096b65f7128466",
        "android_client_info": {
          "package_name": "com.bodyfriend.shippingsystem_w"
        }
      },
      "oauth_client": [
        {
          "client_id": "850119352992-p8c15cqsr2kglu6f8j8lu0ej2311grb0.apps.googleusercontent.com",
          "client_type": 1,
          "android_info": {
            "package_name": "com.bodyfriend.shippingsystem_w",
            "certificate_hash": "d6bb9ffc27a6e7e65526b93ba9b05974858c91a0"
          }
        },
        {
          "client_id": "850119352992-ak5ce5m52pdrmj4geb0kt027t1sh7vmq.apps.googleusercontent.com",
          "client_type": 3
        }
      ],
      "api_key": [
        {
          "current_key": "AIzaSyDCxWoHSLsU78_qgLMF-RFdGHohwAzUVG8"
        }
      ],
      "services": {
        "analytics_service": {
          "status": 1
        },
        "appinvite_service": {
          "status": 2,
          "other_platform_oauth_client": [
            {
              "client_id": "850119352992-ak5ce5m52pdrmj4geb0kt027t1sh7vmq.apps.googleusercontent.com",
              "client_type": 3
            }
          ]
        },
        "ads_service": {
          "status": 2
        }
      }
    }
  ],
  "configuration_version": "1"
}